G04 #@! TF.GenerationSoftware,KiCad,Pcbnew,6.0.11-2627ca5db0~126~ubuntu20.04.1*
G04 #@! TF.CreationDate,2023-02-28T10:57:36+01:00*
G04 #@! TF.ProjectId,Hat BeagleBone,48617420-4265-4616-976c-65426f6e652e,0.1*
G04 #@! TF.SameCoordinates,Original*
G04 #@! TF.FileFunction,Soldermask,Top*
G04 #@! TF.FilePolarity,Negative*
%FSLAX46Y46*%
G04 Gerber Fmt 4.6, Leading zero omitted, Abs format (unit mm)*
G04 Created by KiCad (PCBNEW 6.0.11-2627ca5db0~126~ubuntu20.04.1) date 2023-02-28 10:57:36*
%MOMM*%
%LPD*%
G01*
G04 APERTURE LIST*
%ADD10C,1.600000*%
%ADD11R,1.800000X1.800000*%
%ADD12C,1.800000*%
%ADD13O,1.600000X1.600000*%
%ADD14O,1.800000X1.800000*%
%ADD15C,2.000000*%
%ADD16R,1.600000X1.600000*%
%ADD17C,3.300000*%
%ADD18R,1.700000X1.700000*%
%ADD19O,1.700000X1.700000*%
G04 APERTURE END LIST*
D10*
X178800000Y-85790000D03*
X183800000Y-85790000D03*
D11*
X182600000Y-67615000D03*
D12*
X182600000Y-70155000D03*
D10*
X161900000Y-81590000D03*
D13*
X161900000Y-89210000D03*
D11*
X170640000Y-73965000D03*
D14*
X168100000Y-73965000D03*
X165560000Y-73965000D03*
D15*
X143495000Y-99755000D03*
X146035000Y-99755000D03*
X148575000Y-99755000D03*
X151115000Y-99755000D03*
X153655000Y-99755000D03*
X156195000Y-99755000D03*
D16*
X130059315Y-85050000D03*
D13*
X126249315Y-85050000D03*
D15*
X181640000Y-89985000D03*
X181640000Y-92525000D03*
X181640000Y-79195000D03*
X181640000Y-81735000D03*
D10*
X130070000Y-74860000D03*
D13*
X130070000Y-82480000D03*
D15*
X138400000Y-110300000D03*
X138400000Y-107760000D03*
X138400000Y-105220000D03*
X138400000Y-102680000D03*
X138400000Y-100140000D03*
X138400000Y-97600000D03*
X138400000Y-95060000D03*
X138400000Y-92520000D03*
D10*
X174300000Y-81110000D03*
D13*
X174300000Y-73490000D03*
D10*
X162210000Y-74000000D03*
D13*
X154590000Y-74000000D03*
D15*
X156205000Y-106545000D03*
X153665000Y-106545000D03*
X151125000Y-106545000D03*
X148585000Y-106545000D03*
X146045000Y-106545000D03*
X143505000Y-106545000D03*
D17*
X106510000Y-68245000D03*
D15*
X115400000Y-70150000D03*
X112860000Y-71420000D03*
X115400000Y-72690000D03*
X112860000Y-73960000D03*
X115400000Y-75230000D03*
X112860000Y-76500000D03*
D10*
X165300000Y-89210000D03*
D13*
X165300000Y-81590000D03*
D10*
X169000000Y-93100000D03*
D13*
X169000000Y-85480000D03*
D15*
X169455000Y-99745000D03*
X166915000Y-99745000D03*
X164375000Y-99745000D03*
X161835000Y-99745000D03*
X135595000Y-76960000D03*
X138135000Y-76960000D03*
D18*
X120700000Y-118500000D03*
D19*
X120700000Y-115960000D03*
X123240000Y-118500000D03*
X123240000Y-115960000D03*
X125780000Y-118500000D03*
X125780000Y-115960000D03*
X128320000Y-118500000D03*
X128320000Y-115960000D03*
X130860000Y-118500000D03*
X130860000Y-115960000D03*
X133400000Y-118500000D03*
X133400000Y-115960000D03*
X135940000Y-118500000D03*
X135940000Y-115960000D03*
X138480000Y-118500000D03*
X138480000Y-115960000D03*
X141020000Y-118500000D03*
X141020000Y-115960000D03*
X143560000Y-118500000D03*
X143560000Y-115960000D03*
X146100000Y-118500000D03*
X146100000Y-115960000D03*
X148640000Y-118500000D03*
X148640000Y-115960000D03*
X151180000Y-118500000D03*
X151180000Y-115960000D03*
X153720000Y-118500000D03*
X153720000Y-115960000D03*
X156260000Y-118500000D03*
X156260000Y-115960000D03*
X158800000Y-118500000D03*
X158800000Y-115960000D03*
X161340000Y-118500000D03*
X161340000Y-115960000D03*
X163880000Y-118500000D03*
X163880000Y-115960000D03*
X166420000Y-118500000D03*
X166420000Y-115960000D03*
X168960000Y-118500000D03*
X168960000Y-115960000D03*
X171500000Y-118500000D03*
X171500000Y-115960000D03*
X174040000Y-118500000D03*
X174040000Y-115960000D03*
X176580000Y-118500000D03*
X176580000Y-115960000D03*
D10*
X166100000Y-92300000D03*
X161100000Y-92300000D03*
D18*
X120700000Y-70000000D03*
D19*
X120700000Y-67460000D03*
X123240000Y-70000000D03*
X123240000Y-67460000D03*
X125780000Y-70000000D03*
X125780000Y-67460000D03*
X128320000Y-70000000D03*
X128320000Y-67460000D03*
X130860000Y-70000000D03*
X130860000Y-67460000D03*
X133400000Y-70000000D03*
X133400000Y-67460000D03*
X135940000Y-70000000D03*
X135940000Y-67460000D03*
X138480000Y-70000000D03*
X138480000Y-67460000D03*
X141020000Y-70000000D03*
X141020000Y-67460000D03*
X143560000Y-70000000D03*
X143560000Y-67460000D03*
X146100000Y-70000000D03*
X146100000Y-67460000D03*
X148640000Y-70000000D03*
X148640000Y-67460000D03*
X151180000Y-70000000D03*
X151180000Y-67460000D03*
X153720000Y-70000000D03*
X153720000Y-67460000D03*
X156260000Y-70000000D03*
X156260000Y-67460000D03*
X158800000Y-70000000D03*
X158800000Y-67460000D03*
X161340000Y-70000000D03*
X161340000Y-67460000D03*
X163880000Y-70000000D03*
X163880000Y-67460000D03*
X166420000Y-70000000D03*
X166420000Y-67460000D03*
X168960000Y-70000000D03*
X168960000Y-67460000D03*
X171500000Y-70000000D03*
X171500000Y-67460000D03*
X174040000Y-70000000D03*
X174040000Y-67460000D03*
X176580000Y-70000000D03*
X176580000Y-67460000D03*
D11*
X173525000Y-86460000D03*
D14*
X173525000Y-89000000D03*
X173525000Y-91540000D03*
M02*
