M48
; DRILL file {KiCad 6.0.11-2627ca5db0~126~ubuntu20.04.1} date mar. 28 févr. 2023 10:59:54
; FORMAT={-:-/ absolute / inch / decimal}
; #@! TF.CreationDate,2023-02-28T10:59:54+01:00
; #@! TF.GenerationSoftware,Kicad,Pcbnew,6.0.11-2627ca5db0~126~ubuntu20.04.1
; #@! TF.FileFunction,Plated,1,2,PTH
FMAT,2
INCH
; #@! TA.AperFunction,Plated,PTH,ComponentDrill
T1C0.0315
; #@! TA.AperFunction,Plated,PTH,ComponentDrill
T2C0.0354
; #@! TA.AperFunction,Plated,PTH,ComponentDrill
T3C0.0394
; #@! TA.AperFunction,Plated,PTH,ComponentDrill
T4C0.0472
%
G90
G05
T1
X4.9704Y-3.3484
X5.1204Y-3.3484
X5.1209Y-2.9472
X5.1209Y-3.2472
X6.0862Y-2.9134
X6.3425Y-3.6339
X6.374Y-3.2122
X6.374Y-3.5122
X6.3862Y-2.9134
X6.5079Y-3.2122
X6.5079Y-3.5122
X6.5394Y-3.6339
X6.6535Y-3.3654
X6.6535Y-3.6654
X6.8622Y-2.8933
X6.8622Y-3.1933
X7.0394Y-3.3776
X7.2362Y-3.3776
T2
X7.189Y-2.662
X7.189Y-2.762
T3
X4.4433Y-2.8118
X4.4433Y-2.9118
X4.4433Y-3.0118
X4.5433Y-2.7618
X4.5433Y-2.8618
X4.5433Y-2.9618
X4.752Y-2.6559
X4.752Y-2.7559
X4.752Y-4.5654
X4.752Y-4.6654
X4.852Y-2.6559
X4.852Y-2.7559
X4.852Y-4.5654
X4.852Y-4.6654
X4.952Y-2.6559
X4.952Y-2.7559
X4.952Y-4.5654
X4.952Y-4.6654
X5.052Y-2.6559
X5.052Y-2.7559
X5.052Y-4.5654
X5.052Y-4.6654
X5.152Y-2.6559
X5.152Y-2.7559
X5.152Y-4.5654
X5.152Y-4.6654
X5.252Y-2.6559
X5.252Y-2.7559
X5.252Y-4.5654
X5.252Y-4.6654
X5.352Y-2.6559
X5.352Y-2.7559
X5.352Y-4.5654
X5.352Y-4.6654
X5.4488Y-3.6425
X5.4488Y-3.7425
X5.4488Y-3.8425
X5.4488Y-3.9425
X5.4488Y-4.0425
X5.4488Y-4.1425
X5.4488Y-4.2425
X5.4488Y-4.3425
X5.452Y-2.6559
X5.452Y-2.7559
X5.452Y-4.5654
X5.452Y-4.6654
X5.552Y-2.6559
X5.552Y-2.7559
X5.552Y-4.5654
X5.552Y-4.6654
X5.652Y-2.6559
X5.652Y-2.7559
X5.652Y-4.5654
X5.652Y-4.6654
X5.752Y-2.6559
X5.752Y-2.7559
X5.752Y-4.5654
X5.752Y-4.6654
X5.852Y-2.6559
X5.852Y-2.7559
X5.852Y-4.5654
X5.852Y-4.6654
X5.952Y-2.6559
X5.952Y-2.7559
X5.952Y-4.5654
X5.952Y-4.6654
X6.052Y-2.6559
X6.052Y-2.7559
X6.052Y-4.5654
X6.052Y-4.6654
X6.152Y-2.6559
X6.152Y-2.7559
X6.152Y-4.5654
X6.152Y-4.6654
X6.252Y-2.6559
X6.252Y-2.7559
X6.252Y-4.5654
X6.252Y-4.6654
X6.352Y-2.6559
X6.352Y-2.7559
X6.352Y-4.5654
X6.352Y-4.6654
X6.452Y-2.6559
X6.452Y-2.7559
X6.452Y-4.5654
X6.452Y-4.6654
X6.5181Y-2.912
X6.552Y-2.6559
X6.552Y-2.7559
X6.552Y-4.5654
X6.552Y-4.6654
X6.6181Y-2.912
X6.652Y-2.6559
X6.652Y-2.7559
X6.652Y-4.5654
X6.652Y-4.6654
X6.7181Y-2.912
X6.752Y-2.6559
X6.752Y-2.7559
X6.752Y-4.5654
X6.752Y-4.6654
X6.8317Y-3.4039
X6.8317Y-3.5039
X6.8317Y-3.6039
X6.852Y-2.6559
X6.852Y-2.7559
X6.852Y-4.5654
X6.852Y-4.6654
X6.952Y-2.6559
X6.952Y-2.7559
X6.952Y-4.5654
X6.952Y-4.6654
T4
X5.3384Y-3.0299
X5.4384Y-3.0299
X5.6494Y-3.9274
X5.6498Y-4.1947
X5.7494Y-3.9274
X5.7498Y-4.1947
X5.8494Y-3.9274
X5.8498Y-4.1947
X5.9494Y-3.9274
X5.9498Y-4.1947
X6.0494Y-3.9274
X6.0498Y-4.1947
X6.1494Y-3.9274
X6.1498Y-4.1947
X6.3715Y-3.927
X6.4715Y-3.927
X6.5715Y-3.927
X6.6715Y-3.927
X7.1512Y-3.1179
X7.1512Y-3.2179
X7.1512Y-3.5427
X7.1512Y-3.6427
T0
M30
